{
	"info": {
		"_postman_id": "d62f211a-7950-40f9-9246-d729c56e950d",
		"name": "Clientes",
		"schema": "https://schema.getpostman.com/json/collection/v2.1.0/collection.json"
	},
	"item": [
		{
			"name": "http://localhost:8080/Clientes",
			"request": {
				"method": "POST",
				"header": [],
				"body": {
					"mode": "raw",
					"raw": "{\n    \"nome\": \"giovanni\",\n    \"cpf\": \"12345678944\",\n    \"dataNascimento\": \"1997-01-16\",\n    \"email\": \"giovannifrozza@gmail.com\",\n    \"telefone\": \"996977727\"\n}",
					"options": {
						"raw": {
							"language": "json"
						}
					}
				},
				"url": {
					"raw": "http://localhost:8080/Clientes",
					"protocol": "http",
					"host": [
						"localhost"
					],
					"port": "8080",
					"path": [
						"Clientes"
					]
				}
			},
			"response": []
		},
		{
			"name": "http://localhost:8080/Clientes",
			"request": {
				"method": "GET",
				"header": [],
				"url": {
					"raw": "http://localhost:8080/Clientes",
					"protocol": "http",
					"host": [
						"localhost"
					],
					"port": "8080",
					"path": [
						"Clientes"
					]
				}
			},
			"response": []
		}
	]
}