{
	"info": {
		"_postman_id": "7073825f-37ab-4bf5-8895-0c75a820734b",
		"name": "Contato",
		"schema": "https://schema.getpostman.com/json/collection/v2.1.0/collection.json"
	},
	"item": [
		{
			"name": "http://localhost:8080/Contato",
			"request": {
				"method": "POST",
				"header": [],
				"body": {
					"mode": "raw",
					"raw": "{\n    \"tipoContato\": {\n        \"tipoContatoEnum\":\"TELEFONE\"\n    },\n    \"valor\": \"969251462\"\n}",
					"options": {
						"raw": {
							"language": "json"
						}
					}
				},
				"url": {
					"raw": "http://localhost:8080/Contato",
					"protocol": "http",
					"host": [
						"localhost"
					],
					"port": "8080",
					"path": [
						"Contato"
					]
				}
			},
			"response": []
		},
		{
			"name": "http://localhost:8080/Contato",
			"request": {
				"method": "GET",
				"header": [],
				"url": {
					"raw": "http://localhost:8080/Contato",
					"protocol": "http",
					"host": [
						"localhost"
					],
					"port": "8080",
					"path": [
						"Contato"
					]
				}
			},
			"response": []
		}
	]
}